trytond_account<7.1,>=7.0
trytond_account_payment<7.1,>=7.0
trytond<7.1,>=7.0

[test]
proteus<7.1,>=7.0
trytond_account_statement<7.1,>=7.0
trytond_account_statement_rule<7.1,>=7.0
trytond_account_invoice<7.1,>=7.0
